{
    "variants": 
    {    
        "facing=south": 
        { 
            "model": "ancientlegends:block/resources/empty_apricorn_tree" 
        },
    
        "facing=east": 
        { 
            "model": "ancientlegends:block/resources/empty_apricorn_tree","y":270 
        },
    
        "facing=west": 
        { 
            "model": "ancientlegends:block/resources/empty_apricorn_tree","y":90 
        },
    
        "facing=north": 
        { 
            "model": "ancientlegends:block/resources/empty_apricorn_tree","y":180 
        }
    }
}